4afd6a1cbe3d5db548546efd56f48daacc1c10e724732306fb
68ba5127d19b80de492a49c14fe024eef7297dd1ef468dd622
607c7b12e2c099950f1229125745e85e7921d30c5ef4c2f91c
cacfa82267662ca1f849f0d97bee6134e0f2c31badb16e782a
9c2329328cd64f90f465ead69441c6314c659665ef5556569c
feb018e7f1ff331202ec049a4c2b419709061350ea5230b9c0
d3b1b13c4b463dd923d657d742a5fc5312d165def405e46d43
30c062a37e5bba8c49cd381c6c20a4efb46ad85728e211aefd
98944dc355c59d3e1013e24fea57f506744df038002fde133c
98aa94a2eddcfc582e291838963da0edfe1841e5ee7e7c0ac3
64b9499cd8600f82e60bfb35c2a75a41361a96c51d49b78de1
2e84f3d10e8c0954bca97780e0332044e9179f2c74636ac675
b3f6ff808bf94272900a6c1e6fbbc31ab30f494a3a4917b8a0
bac43519b99bcd5a9b7ca8e081c25c57bcbe18866c84790f41
0bfeeac1c05f2de5c298e432ed2a65ed6e620ac3f182f0b4e9
7018c6afcb678f213a212543bf98f2efb04f99955c6eb4db1c
35b89e07f15635a9534b8872c0c50da261f91d0dfe35e3a6d0
3e3a651194822421df960ba5b4794f5bb4fa323365aac8196b
9baaeddf635ddfd7eba7c843c652542b81c24b1235aef15849
6ac09228836023e8da264f961d58eb4dfbea1a819e8d1b37a6
d49429891463712cafb73261ebdccaff205654685e939e7707
304a9f63e9cf7a813d65e22424aa26c73e0eb56d5c975c71eb
eabdcd259545726922a0720e41106bc37b1f7cbaa8e0184d73
db805ad050ac5a4d164cd848f65cb8a670eee5de6355e66df7
0555149ef588130a26823c369956deecc34c286889c015ce70
0a583bea003d7b3e713497ee03764f2c0c4b17e37cadfb28ee
8a15b6b61b4b1dc6c66e255a8a9932be836acf12ba53b57040
dee0153de6c1d37c17b2cf897533004ea5f6c9644060dde724
324b5a09705a034ad3bbb0a2165af58c169b9af698591875a8
063f814da5ba3cd821d750858909f6beced2bc1ee56b57cc0b
dee39fdf3d794e858610a8b06e83feece7b1aa64e6445ad051
e4a497aa2203b1ac118a850d886185af955d2a5139d988d62c
764bd5e3efaa76c9d76c6049ce371a56ffe7bbcf46a7db1561
20567a8c4b95830692ca4886e7cbc7bb96cc5d469620a49628
2e7de2312a9198a8c6b2bd64c9e54598aedd9b4498f5790eab
ed537371700f8776bd464799e5eca1c4fa941151159a80bcfa
05bbd2ab6c722f16ec67a9ca8b654aed1ed11417e0704fc50f
30386824c6d782c19adf6988446b9054cc148a126763ac9c8e
4ddac4c49e8a777462138be6efedc9fd9c2d42b89f042b2a4c
7991f18aa437d7cb1c21ce3a4d378ba0656d7c3640ddb26a6c
