581005622f6e67a1cbf17a833e9e18bbef3dd00cf688eec546
aa5850016bee1ce73162caba5b4f2fd5c80047e0aa34efdbd8
47c5e69bacd0566b279f98067e7d37a7294cee4edb1a3fb2f5
a213791406255281d5e7a6f0016dd86c22005603147f33f2ca
9c756a27d04d6c5aba53617dfe9bb2a391c0e3514acbea35bd
5d67a171522493a0ee6e83da0961fbd6ec3615d3c67658f499
748a4633cd4232fd1c20525ffeaecf3d8e6fac70eed8ac314c
e930696226bde93d42af085553a49dc5c591b5fd525d6bcc1e
14ad6f17eb3f70d351c92f3779706ca46110f000a7105d2bda
947665a8a89374d856d9b82822d46a3e9a4b34a2d158ff5649
43838508544a4a043dbbb6012e73ac6a167cc6b505bb444ec0
4a53deda4417bb5c47d3fd6e6e3a8872506b11cb2391055ad9
8866b57f1881d3d6156f5023be218c6189f6c0d5316cbc4f47
e4ada5bb3a85f9c2a68be9d9010a3bf33d0f6ade46fc6a6a73
e3a179a6bbc132f95933f77123162a0fda0439eed0de33e630
049a07848ec209f5ac0ed9c72b7cc84e6228eb0f783fb85f8b
00f86832f3729bfc5408a729f532b5349b2a9b8554bfd30e09
73c731692bf4fd66e092919acfe7488ee1e81d1ea2ed2aef52
aa32e54c95715d5a16e83efb924ce8755b4a857d85d829268b
7da7cda4724ed62e2c4c1a2101ab4cf6d5ea57a3480bdd9235
3848c897ca7164f248b97ba4ebff2be6782a33fc83b19b2511
945a3122989586db6f05c74443d71973ada72a272f0dcee3df
a6bf9848a376d8c811a972d94074dd95029a10e986115c54e9
b4f159061137aa535b8a7724b128ef67b8ee4665eb196e3043
0469fe1c79966d9caaefafef4c194736a119eb112c41946eb7
bd9e88454da9b0bb918cb8cf5217d7ebb3e180fed32c8263b5
85227ca50781c17b67f8b11312555dc1ae51fd901fee9413dd
25bc1119278b07a89c0b4d0baddbc9b3d5634a00408cd4deda
7921a73f8ea37d7a03d8c09098da9d9152045245d12909788f
77ff467b1bf727e50e325b4a073b4fe5884094d3349863cb40
19ec32b9ae7532caaa1887075d187713bb064356db22bde618
c503604796a31739a3d1158b8790cb664cc6ddcde58436dffc
0595a9164430b3ee14b01f358009ee316bc698e3a983a716bc
3a04c1abf17541de18b5ec4c4b84b2b0f37ed7bc6c985d831c
34828f7d4629293dec07aef4ab71f3d4e620fb35cf4c673b96
da2bff4f0df8a8759925f6baefd70306443db410c4a156406b
05c5e5c3cab7de010d1c8b1ee1c05c7da7d512e4f3753d30ee
c3a6e7b0f9ce2f00dbb34449aa47154b125e53e09828d6caec
e122df22005fd4f25740f662bcd35159749ebd08e9978f8315
1c435b657d9fbf7bd45aae9e8238c675e20e1d0fc85cd29ca9
