81419a722ce6f21249b83fcbbd6803514d1a198d835b60e17e
27b1df035e0f1f59384bc17e2fc03fd61d8d1e9b4979a6401d
fd16de1aa4ebb98a537c45958bbdc7e8b5de4327ad3c29e517
05cd1dfe6d72a5d42c92cc7cb9699eb6871c5f47dc96e11957
e52d1781943c364325a94034ef0185258acb20f04a32ab3aa5
ef85eb16ac6448374213e2b6ac15dc5b17f4573311c438e563
1d8ed3de7568909f4c90da83a46da7a1d0445e9f13c2a40a36
a94d0969a2274684c3e938c9c1e48c501e4d6f156f23b88750
5269753a47956a4d62446132e2d2db6bfc06599f3f4042fd8a
0c41ffb8bfb1ee4295445dd155c0f6f31439ea1f71b73c045c
ca8ecc102f116179edb0cafc9e54fb58a6596e1065a2e2b15b
ede21eda50651920be23509482a359d11298eba53a6fbe6030
afc5349b15d5590332f9528d400c37550cedac70385916516b
048eac3dc86f21b1eeb947bac7d82894fa09323a2b6e4dee7b
8015b45a0706eb3944d176b5595006b48d0f6b50d94f8a8a23
d1f66d2e0d0b1b7517abab1c88bdb1811005722c50575b43d3
f2633c1a57060d32317f489a2c4deb3a40601b7b004caf9842
2080ef8662443cc87585e1038c5005b441c12e35e2e79f1dc1
219ac2d63cf22f089faab2eea0a1859ebe2847f34e7c643209
cb607cd89ef95fc1fadd41dcaf08f0a5087502b39f49682d5c
de4b3b7fa72be890e318e7432ab9d41fc92c0216c2497f9534
b930034c9ce2b45e6dbf17468b78dde401d75a53ce7971f55f
f6feb01fb8b3826b2c1ce98b2c07663af7a3069dc955255617
3d7e0018c5a1b985196272e4ab7da510b380a1c15e5097e619
1ad384fdb9317edc5e0e7da2f434e0b36f82122edbb3b4388e
65c4df34b4d2c8fab3ed2ffe25263b2ff41e2accc1d6a1260a
4e8e6ecabf764fc5397d1e6a63e21fda9697737cedc4927564
27d1c77098e4cfc71f07846bbf89ac1348ba8cf5fc0e8f4b98
a428ef22621073504961b221440cb5a20c810297b91d74c506
462abad09a673f14118184155ea7ea3b460cabe65ef7469500
34a1f832d083f7f7dc588f08f45158e0bdfd52bb667dc10e67
bdd08edced912b309dd5b98d69ace8c3efdf79699ee0afd4e2
df63e887a9d66bfa4d63d1502e285894267c04f899fcb3055a
4752b867e55c678e9d0b45b72ebfdfa440d6d3cc1f4cf95c02
235e4e6f2149786cc1d442391a4853fc0d49a700b15e52bcb0
b99e0603427651f233ec97a78b426f2f8f792152e5546acef8
3ceaf767443d7bb48e8e6d1bcef6c9dc11ac972f163e302d4e
354500340c9ed74692c9e3e0b8ab3d06fb7a3efc63886b83ab
357b275c10dd62c9194f820780d764ba8bf5f71f3f43f771df
f4aabf963a7cf45b961d4aa22d58338b84b035bb0eaaf35ac9
