814b44870366e781e1bb8b8c51157bcfeee94c0a3490c6bce8
ab70906072260abf022af3e653c3af992b1574d9343aeeacef
f38904fbfa914cb87daadb6204f53732f6806af388886d1b94
688ac28a60cb6b5b774396e014ecb4298e24ab1c9946f54c44
e4dceccceaee1808b5babd02e3a8c4b6aa135cc0d8a52603b0
67774a7f58409e624cf0ec5e7f050ab0f3da65dbc58f27b17e
21464606433280d817950bd314bbaa57b3f827c570798346bf
34040a2f83c7e5c7210f1028bddd8924b0f5a4679180f10643
3cca3033bf2fe06a7b1bf78e14ef9be1422387870dcc8093ca
99bb668201f0a43a535f69c5b52e5ebbb6e9e5aa5265841e1a
3b5ae0f52c3c593f3ef68cbdcef415a5e1233895d87c5ee388
be092e89a7c73e33e680c825cf084628094a7908525548bc2c
07bcce3b5ff47b777f6fb217203807cd2b23933d91ec38bef8
806a6e8256c629ea288d1237e5413f6f3cbf8971028d76db4e
5b45cf72cb1b75d2746084b0903110e7cf18b418f360a0cd39
07d059dbacc815512e48dd0df920e2c5c06960d06d4b4a8c0c
dcb147e8663233ff47fecda0759c26e6c232df2c18c1825892
958e1e84dec16f3901855df4c7ce13fc03a21160f41b4ca2be
890be9b5e9341d46c81df0feff055437509037632586e5d19e
a85855d7cc3803f2fcc6142137f716802bb5e1971750d7b475
28b2ebef9a96d9e56c32b644fdfc78c32d9b883144bb645df5
56355bf5fe6afa30d8405dff359395e8774342fe2d42efbd01
d646f6d2faea885faaee472dd9ed54c49084761c7e25a82576
699637b2d00d04da1650ed557556c7b7cbb11c6ce286e78235
e60b8e031a2d6212fe1549af3dcccdc6a01670ccef93ca857f
65362906fa976e87692c5ee7db4c4cebe882877997b75dd0c2
4239920e89dd919e31f0bd71fb7f9a2ad85a9bc822eb5e5af1
1f3238356fc33c8e4cad35d4f3ac4ddea204ead9962080262a
d538a6806272cbed2ca6d456eae93d9c6a56bb5c438adb3ec5
e1d1cd9098fb91df0c4a6d19939ac17fc8cb324937e6715c15
1a64dbbc669a8f48c7c31e22bda7c1a16b00ec5a78faa79afc
21e5a9c63082bdb3ea2cf94b2e9b48d921d075c06ed8e6e762
18f993a7b97043c8b27ed07e51e0381be252bc3182d5c7d33a
893533a445dca37b2f2ae20983ed06fa5641192342be4f5f83
c654b449dd6a1a7b7320a1274bc3427b07197b70ae15af4d66
a6a6ff1b6b3a58a66340c94b010a47ea9416965aa28586b452
d3096fe0f13634357a1dea08662ef4c825000aefde9f22d8e9
9039b849788613423e0262c294b7035aeca3af87b033634f32
a78fb2ebd9d405b1034286362481c7c2293c304ff50f7d92df
46f5c48bdfba72467a12a1b94905b99f49e7582cb5f14b2115
