8d00c13b1eb22eb7f56ecd6f38297588e55cdb4e1255ec9d8c
f85678c7701087f30bec9eb5c8df42f7ac91b2b8af080347d5
2aedaac1c85be850c95b2ea686d7fa0729a1c306ca96bdb8f2
877a4bef0bc1c0335f394a4cca5a00fc137d9d225cfaf8cf3c
df1b34b0e0763f31f6d639daf9fcbdd5fc8075135806a98fb7
cbbc478178cee0c9e470de631c0fd63871f0d503abed50e784
7fd5fc066be114c376b1ddf047ed6cef3304c545e9620f2714
fecee8f7628ef631259af25b9d5fe3582aad831d03070762ba
cbe0ec3d0109adf58f635b69a244727b37dc4077707b5784d9
b56abbcf984cf6d5312da9a076ca55955aed988b1a811233fc
1df75d41443ba3d6ffd95a4f82ce7adfddd03efbee7febb954
526511d5a43f90fec0862f9b8d9b1513ffb39569771613264c
5c4d937faf0462371845bfe03f0e56214fb3fccc84f23ad829
c86ff607dc2083d8c9f337dbe32dcff43a9fe1391eb0b1cd94
5a96fc9d418ccaefe8d5fb8b035123441a07f92b31c9f57685
53c8a76125fc4a3857c5cc3a2970deadf5bbab3c91f0a039e7
804fce9cbf0269038fc2505257bc64e154098405012afe00ba
634e8cb57b0e55c01ffeb86e0e837b17407af74c8fe6c6b874
8a76faaf7cbda1367a808749f61dd15cc1ea93d8da0c2f5732
869bba90a7993b50c0e6ab35e470e8780c3dfcc146c2fda492
b7dfcb4e7ee89a27317850de2571015e240cf04b92ee253e07
ed31ffdd4a233d7edcb0cddd9ae803c4c30751e04622620f6d
ee77ee2369156e2666330b51f1587d2950f5cf35c946fd06d4
2db75ee72479cb1161a4dd983e661fe0d0025b1fc27fc2d8be
6c34014a7a75adaf14b233f9a65a0633eb33eee831fd5b2aba
b7db26fbc38ac212386b56aad04dab68c9aefe43c9d8f95bcb
5a771606e20964903cb602c837aa608e910be6f7a91c74953a
c0d23216315551b3007942007547be15cce2bb17ba031e652b
be2d251499fff9bca5d99952ad51011c94f9402ba1df5e5de7
91265ccb624b43132f9ea668b8633eb3a82be87585d3498f01
dad855e0762a67a9acf41ac36098464d3c142267439d7623c5
a1890887ca56c17236810c2fb449ef285825e73d690adff5e2
6bda3abf06ce2af1b742b5fb792111b986a45043df895f571b
04651ea62bdda04075fcf49e77aa760072d77588234e17bf3c
ffcfe0a5d5e16c51962de89363daaf48ff72c739aac62ad51f
d0017ecc069de00e4dec3a019118be3295665d20cea04a4271
3879d4c8aaebd55edf5d9af1be86cce347c7c54449270a6e1a
bb6913f2dd10d11103c45c3a92a7944ad4fae37ab8a14e86d1
298b27523cda1d5a8b89b273c6e6d3429f8257ac18084933ee
8d8fa87d6296931f8567e762f17db95098324bab40ec5d0fe7
