e719c62c778bc527082af327c5db73927d8f968c7367de6247
34aff6c49e7df4d0956980de35f0b0bc688a6229571697aaf1
c52031309aa15729735e3342d03ff8a7dcfa6efd1abe454a61
c6d24616934ca5da86b8f615159185816fc606958b8204f8fd
7296716e4b3d22ff9b6fe30b7e74299fc845cb14c6fe5ae185
0f6bf1379b7fea3cb4257da86eaa37b5a4f053b18868e1082a
66bab76c41eee6857440251d3c7336d37c3de97865a3e47d37
bb2bf2dcc98d7bd41369c39b9fed9435e9a9153f8244b46b81
1426326722f462e24092ef11312ff20aac7bbb9c15e71f2e39
4b96d0cfc0f37b17f7ad694bfe51be4f9b8e1bce7692081efe
96cf2c93195fb7b4c9b08809a67d26395e2714de19c54a8e32
cf6261da0d399cb3ee0aa49c19638a77e48cb3ce0c6f83452c
2077bcb19c5d1f001e0442cb8d4177ee0410b2865158ce65f9
fe4f5a8f6404c2ecab978bd1e698cfdba5cdc823aee144fde3
1d36299569032472eba564e86184a38acbccaee7cc37b1c208
342c1c80a63d6e5d4348f0c5cd35af017bbf95c6b692b32ead
fad471fe47759f1dfff7f7eda1f7170d7dd28f630d99b0f773
955e7aedf61a543d2ec89df0746a5df26bd0ffc7e4c6c1858d
92a58fe247c4da2c474738299777dcf172d93640ce9a912afa
06d1b00172f46efa29497748d8bba21f03325585e0c38c3e57
5f6d1998928889e2e9fed2c74e2e5a4468a3635eb1c6cf4538
9a3abec90e5ece76c7e64b46131de2895b0eb4f230cc1097f3
03faf54348fc57b5ce3a97f5b13ef7d484a0a67342dce3a31d
c89fcb679a1c77ac5f4e7c97a1e16934e079b9ec21cb69ab52
5bd73cc6eed71c9fd50652dae392a33b628ae243e1655d36b2
875801c5298df6eb97cd02bbb80c9847241b84085dee8e4f87
08f8c2e298e07e6c6f80be0541818006e2ac9f94212f6af1ba
cd8784a90f3d713f6cd952ac33321324f4e7c7d6230f74de9b
1306f721adc26fdd0af4bb5669e41a0a2af32df441cf15acfd
01fce56997b533c96b05fdea552a5affa78dffb8453c5ad583
b795363edea5cf2a3cc1a22a260d2e8dc4d4dafe3006a2b500
59ae16d677c10275f4b2442d0560cc023d56c427eb87ff120b
61107dc8c220394ecda45349880d2f9884c6185b14277d85c5
d257a3ddf8afee57002b75318e12e8093ea2696f899e42d03c
2775602686e57969ec4bfcf28c0ccffdd74198643b37da7be0
9c5918c589edfde86c6911fafbdf5459dc24a6ee11ffabdcbe
3aa87cbfee7b1ef7a3c85535dfd9b921cab0f58c381709f9cc
18ba90bc2d6b85638b9cc777165589c5c54734f8ab855cc846
5a8ef1bfe906b1f69078a3681269d7625f512a07295d44a878
03ff1cc8bc4ff6268b887dba6c4c6c6767f38d42f4915549bd
